﻿<?xml version="1.0" encoding="utf-8"?>
<svg version="1.1" xmlns:xlink="http://www.w3.org/1999/xlink" width="1151px" height="133px" xmlns="http://www.w3.org/2000/svg">
  <defs>
    <filter x="-1px" y="544px" width="1151px" height="133px" filterUnits="userSpaceOnUse" id="filter2">
      <feOffset dx="5" dy="5" in="SourceAlpha" result="shadowOffsetInner" />
      <feGaussianBlur stdDeviation="2.5" in="shadowOffsetInner" result="shadowGaussian" />
      <feComposite in2="shadowGaussian" operator="atop" in="SourceAlpha" result="shadowComposite" />
      <feColorMatrix type="matrix" values="0 0 0 0 0.274509803921569  0 0 0 0 0.368627450980392  0 0 0 0 0.858823529411765  0 0 0 0.0745098039215686 0  " in="shadowComposite" />
    </filter>
    <g id="widget3">
      <path d="M 0 123  L 0 1  C 0 1  81.1626788239532 61.4921781054992  200.556260162602 68.5  C 302.299975561666 74.471860701448  351.064178171386 31.0358615366548  425.679617328588 10.8095761252266  C 450.479921528388 4.08686515948978  478.136092468172 -0.0717963291149317  511.542676977989 1  C 726.499783790435 7.89655172413791  666.962327184577 83.2553761845462  891.649756097561 68.5  C 1049.30935690036 58.1463868485868  1141 1  1141 1  L 1141 123  L 0 123  Z " fill-rule="nonzero" fill="#3e64ea" stroke="none" fill-opacity="0.772549019607843" transform="matrix(1 0 0 1 -1 544 )" />
    </g>
  </defs>
  <g transform="matrix(1 0 0 1 1 -544 )">
    <use xlink:href="#widget3" filter="url(#filter2)" />
    <use xlink:href="#widget3" />
  </g>
</svg>