﻿<?xml version="1.0" encoding="utf-8"?>
<svg version="1.1" xmlns:xlink="http://www.w3.org/1999/xlink" width="1141px" height="98px" xmlns="http://www.w3.org/2000/svg">
  <defs>
    <mask fill="white" id="clip1">
      <path d="M 2 98  L 2 44.3898305084746  C 1.30184373708144 41.8474576271187  -2.35834780589708 44.2046027227721  18.1817886178862 39  C 21.0599198436745 38.2707190787258  40.6287219677974 34.1082765750657  43.893849832616 33.3529411764707  C 52.9163436970113 31.2657307266705  62.1669059439657 28.9856326715349  72.386752865119 27.2134251290878  C 97.407757966122 22.8745720815115  142.037417183357 9.69203656704985  189.495909943715 9.46153846153845  C 332.50393820941 8.76697195360885  329.926679174484 29.4615384615385  473.97348304327 37  C 482.629426217999 37.4529950887438  490.87712140324 37.7946437207598  498.751741885164 38.0338794763439  C 671.228134842837 43.273817106908  664.728089886139 -0.617134216980503  848.835497185741 0.23076923076917  C 928.037763330605 0.595533883744565  980.352148371089 28.4420391039085  1028.65538461538 37  C 1090.30791744841 47.9230769230769  1141 53.3529411764706  1141 53.3529411764706  L 1141 98  L 2 98  Z " fill-rule="evenodd" />
    </mask>
  </defs>
  <g transform="matrix(1 0 0 1 1 -569 )">
    <path d="M 2 98  L 2 44.3898305084746  C 1.30184373708144 41.8474576271187  -2.35834780589708 44.2046027227721  18.1817886178862 39  C 21.0599198436745 38.2707190787258  40.6287219677974 34.1082765750657  43.893849832616 33.3529411764707  C 52.9163436970113 31.2657307266705  62.1669059439657 28.9856326715349  72.386752865119 27.2134251290878  C 97.407757966122 22.8745720815115  142.037417183357 9.69203656704985  189.495909943715 9.46153846153845  C 332.50393820941 8.76697195360885  329.926679174484 29.4615384615385  473.97348304327 37  C 482.629426217999 37.4529950887438  490.87712140324 37.7946437207598  498.751741885164 38.0338794763439  C 671.228134842837 43.273817106908  664.728089886139 -0.617134216980503  848.835497185741 0.23076923076917  C 928.037763330605 0.595533883744565  980.352148371089 28.4420391039085  1028.65538461538 37  C 1090.30791744841 47.9230769230769  1141 53.3529411764706  1141 53.3529411764706  L 1141 98  L 2 98  Z " fill-rule="nonzero" fill="#4aaeff" stroke="none" transform="matrix(1 0 0 1 -1 569 )" />
    <path d="M 2 98  L 2 44.3898305084746  C 1.30184373708144 41.8474576271187  -2.35834780589708 44.2046027227721  18.1817886178862 39  C 21.0599198436745 38.2707190787258  40.6287219677974 34.1082765750657  43.893849832616 33.3529411764707  C 52.9163436970113 31.2657307266705  62.1669059439657 28.9856326715349  72.386752865119 27.2134251290878  C 97.407757966122 22.8745720815115  142.037417183357 9.69203656704985  189.495909943715 9.46153846153845  C 332.50393820941 8.76697195360885  329.926679174484 29.4615384615385  473.97348304327 37  C 482.629426217999 37.4529950887438  490.87712140324 37.7946437207598  498.751741885164 38.0338794763439  C 671.228134842837 43.273817106908  664.728089886139 -0.617134216980503  848.835497185741 0.23076923076917  C 928.037763330605 0.595533883744565  980.352148371089 28.4420391039085  1028.65538461538 37  C 1090.30791744841 47.9230769230769  1141 53.3529411764706  1141 53.3529411764706  L 1141 98  L 2 98  Z " stroke-width="2" stroke="#797979" fill="none" transform="matrix(1 0 0 1 -1 569 )" mask="url(#clip1)" />
  </g>
</svg>